…
``` r
apt_build2.0 <- as_tibble(select(apt_buildings, id, air_conditioning, balconies, laundry_room, no_of_elevators, pets_allowed, year_built, no_of_storeys, no_of_units))
```

Here I am creating a tibble with my desired variables, including all
observations for each of them.

``` r
print(apt_build2.0)
```

    ## # A tibble: 3,455 × 9
    ##       id air_conditioning balconies laundry_room no_of_elevators pets_allowed
    ##    <dbl> <chr>            <chr>     <chr>                  <dbl> <chr>       
    ##  1 10359 NONE             YES       YES                        3 YES         
    ##  2 10360 NONE             YES       YES                        3 YES         
    ##  3 10361 NONE             YES       YES                        0 YES         
    ##  4 10362 NONE             YES       YES                        1 YES         
    ##  5 10363 NONE             NO        YES                        0 YES         
    ##  6 10364 NONE             NO        YES                        0 YES         
    ##  7 10365 NONE             NO        YES                        0 YES         
    ##  8 10366 CENTRAL AIR      YES       YES                        2 YES         
    ##  9 10367 NONE             YES       YES                        4 YES         
    ## 10 10368 NONE             YES       YES                        2 YES         
    ## # ℹ 3,445 more rows
    ## # ℹ 3 more variables: year_built <dbl>, no_of_storeys <dbl>, no_of_units <dbl>
…
``` r
apt_1950 <- filter(apt_buildings, year_built >1950)
```

Here I am filtering to only show apartment buildings that were built
after 1950.

``` r
print(apt_1950)
```

    ## # A tibble: 2,894 × 37
    ##       id air_conditioning amenities             balconies barrier_free_accessi…¹
    ##    <dbl> <chr>            <chr>                 <chr>     <chr>                 
    ##  1 10359 NONE             Outdoor rec faciliti… YES       YES                   
    ##  2 10360 NONE             Outdoor pool          YES       NO                    
    ##  3 10362 NONE             <NA>                  YES       YES                   
    ##  4 10364 NONE             <NA>                  NO        NO                    
    ##  5 10365 NONE             <NA>                  NO        YES                   
    ##  6 10366 CENTRAL AIR      Indoor pool , Indoor… YES       NO                    
    ##  7 10367 NONE             <NA>                  YES       YES                   
    ##  8 10368 NONE             Indoor recreation ro… YES       YES                   
    ##  9 10370 NONE             <NA>                  YES       NO                    
    ## 10 10371 NONE             <NA>                  YES       YES                   
    ## # ℹ 2,884 more rows
    ## # ℹ abbreviated name: ¹​barrier_free_accessibilty_entr
    ## # ℹ 32 more variables: bike_parking <chr>, exterior_fire_escape <chr>,
    ## #   fire_alarm <chr>, garbage_chutes <chr>, heating_type <chr>, intercom <chr>,
    ## #   laundry_room <chr>, locker_or_storage_room <chr>, no_of_elevators <dbl>,
    ## #   parking_type <chr>, pets_allowed <chr>, prop_management_company_name <chr>,
    ## #   property_type <chr>, rsn <dbl>, separate_gas_meters <chr>, …
…
